[
  {
    "normalForm": "y'm beus",
    "id": 1200001,
    "translations": [ "to have", "to get" ],
    "present_future": {
      "has": false
    },
    "present": {
      "singFirst": "y'm beus",
      "singSecond": "y'th eus",
      "singThird": [ "y'n jeves", "y's teves", "y'h deves"],
      "plurFirst": "y'gan beus",
      "plurSecond": "y'gas beus",
      "plurThird": "y's teves",
      "impersonal": []
    },
    "imperfect": {
      "singFirst": "y'm bo",
      "singSecond": "y'th o",
      "singThird": [ "y'n jevo", "y's tevo", "y'h devo" ],
      "plurFirst": "y'gan bo",
      "plurSecond": "y'gas bo",
      "plurThird": "y's tevo",
      "impersonal": []
    },
    "preterite": {
      "singFirst": "y'm beu",
      "singSecond": "y' feu",
      "singThird": [ "y'n jeva", " y's teva", "y'h deva" ],
      "plurFirst": "y'gan beu",
      "plurSecond": "y'gas beu",
      "plurThird": "y's teva",
      "impersonal": []
    },
    "imperfect_habitual": {
      "singFirst": "y'm bedha",
      "singSecond": "y' fedha",
      "singThird": [ "y'n jevedha", "y's tevedha", "y'h devedha" ],
      "plurFirst": "y'gan bedha",
      "plurSecond": "y'gas bedha",
      "plurThird": "y's tevedha",
      "impersonal": []
    },
    "conditional": {
      "singFirst": "y'm bia",
      "singSecond": "y' fia",
      "singThird": ["y'n jevia", "y's tevia", "y'h devia"],
      "plurFirst": "y'gan bia",
      "plurSecond": "y'gas bia",
      "plurThird": "y's tevia"
    },
    "future": {
      "singFirst": "y'm bydh",
      "singSecond": "y' fydh",
      "singThird": [ "y'n jevydh", "y's tevydh", "y'h devydh" ],
      "plurFirst": "y'gan bydh",
      "plurSecond": "y'gas bydh",
      "plurThird": "y's tevydh",
      "impersonal": []
    },
    "subjunctive_present_future": {
      "singFirst": "y'm bo",
      "singSecond": "y' fo",
      "singThird": [ "y'n jeffo", "y's teffo", "y'h deffo" ],
      "plurFirst": "y'gan bo",
      "plurSecond": "y'gas bo",
      "plurThird": "y's teffo",
      "impersonal": []
    },
    "subjunctive_imperfect": {
      "singFirst": "y'm be",
      "singSecond": "y' fe",
      "singThird": [ "y'n jeffa", "y's teffa", "y'h deffa" ],
      "plurFirst": "y'gan be",
      "plurSecond": "y'gas be",
      "plurThird": "y's teffa",
      "impersonal": []
    },
    "imperative": {
      "has": false
    }
  },
  {
    "imperfect": {"useSecondForm": true},
    "id": 997,
    "normalForm": "yeuni",
    "preterite": {"useSecondForm": true}
  },
  {
    "imperfect": {"useSecondForm": true},
    "id": 998,
    "normalForm": "ygeri"
  },
  {
    "id": 785,
    "normalForm": "ympya"
  },
  {
    "id": 789,
    "normalForm": "ynkleudhyas"
  },
  {
    "id": 786,
    "normalForm": "ynkressya"
  },
  {
    "imperfect": {"useSecondForm": true},
    "id": 999,
    "normalForm": "ynperthi"
  },
  {
    "id": 787,
    "normalForm": "yntirya"
  },
  {
    "id": 356,
    "normalForm": "yskynna"
  },
  {
    "id": 191,
    "normalForm": "ystyn"
  }
]